                              1 ;--------------------------------------------------------
                              2 ; File Created by SDCC : free open source ANSI-C Compiler
                              3 ; Version 2.8.0 #5117 (Mar 23 2008) (UNIX)
                              4 ; This file was generated Sun Mar 23 07:09:53 2008
                              5 ;--------------------------------------------------------
                              6 	.module i2c390
                              7 	.optsdcc -mds390 --model-flat24
                              8 	
                              9 ;--------------------------------------------------------
                             10 ; CPU specific extensions
                             11 ;--------------------------------------------------------
                             12 .flat24 on		; 24 bit flat addressing
                    0084     13 dpl1	=	0x84
                    0085     14 dph1	=	0x85
                    0086     15 dps	=	0x86
                    0093     16 dpx	=	0x93
                    0095     17 dpx1	=	0x95
                    009B     18 esp	=	0x9B
                    009C     19 ap	=	0x9C
                    009C     20 _ap	=	0x9C
                    00D1     21 mcnt0	=	0xD1
                    00D2     22 mcnt1	=	0xD2
                    00D3     23 ma	=	0xD3
                    00D4     24 mb	=	0xD4
                    00D5     25 mc	=	0xD5
                    00D1     26 F1	=	0xD1	; user flag
                             27 ;--------------------------------------------------------
                             28 ; Public variables in this module
                             29 ;--------------------------------------------------------
                             30 	.globl _i2c_recv
                             31 	.globl _I2CByteIn
                             32 	.globl _ByteOutI2C
                             33 	.globl _BitInI2C
                             34 	.globl _BitOutI2C
                             35 	.globl _I2CDelay
                             36 	.globl _I2CSendReceive_PARM_3
                             37 	.globl _I2CSendReceive_PARM_2
                             38 	.globl _i2c_recv_PARM_2
                             39 	.globl _I2CSendStop_PARM_3
                             40 	.globl _I2CSendStop_PARM_2
                             41 	.globl _i2cReceiveBuffer
                             42 	.globl _i2cTransmitBuffer
                             43 	.globl _I2CReset
                             44 	.globl _I2CStart
                             45 	.globl _I2CStop
                             46 	.globl _I2CSendStop
                             47 	.globl _I2CSendReceive
                             48 	.globl _I2CDumpError
                             49 ;--------------------------------------------------------
                             50 ; special function registers
                             51 ;--------------------------------------------------------
                    0080     52 _P4	=	0x0080
                    0081     53 _SP	=	0x0081
                    0082     54 _DPL	=	0x0082
                    0083     55 _DPH	=	0x0083
                    0084     56 _DPL1	=	0x0084
                    0085     57 _DPH1	=	0x0085
                    0086     58 _DPS	=	0x0086
                    0087     59 _PCON	=	0x0087
                    0088     60 _TCON	=	0x0088
                    0089     61 _TMOD	=	0x0089
                    008A     62 _TL0	=	0x008a
                    008B     63 _TL1	=	0x008b
                    008C     64 _TH0	=	0x008c
                    008D     65 _TH1	=	0x008d
                    008E     66 _CKCON	=	0x008e
                    0090     67 _P1	=	0x0090
                    0091     68 _EXIF	=	0x0091
                    0092     69 _P4CNT	=	0x0092
                    0093     70 _DPX	=	0x0093
                    0095     71 _DPX1	=	0x0095
                    0098     72 _SCON0	=	0x0098
                    0099     73 _SBUF0	=	0x0099
                    009B     74 _ESP	=	0x009b
                    009C     75 _AP	=	0x009c
                    009D     76 _ACON	=	0x009d
                    00A0     77 _P2	=	0x00a0
                    00A1     78 _P5	=	0x00a1
                    00A2     79 _P5CNT	=	0x00a2
                    00A8     80 _IE	=	0x00a8
                    00B0     81 _P3	=	0x00b0
                    00B8     82 _IP	=	0x00b8
                    00C0     83 _SCON1	=	0x00c0
                    00C1     84 _SBUF1	=	0x00c1
                    00C4     85 _PMR	=	0x00c4
                    00C6     86 _MCON	=	0x00c6
                    00C7     87 _TA	=	0x00c7
                    00C8     88 _T2CON	=	0x00c8
                    00C9     89 _T2MOD	=	0x00c9
                    00CA     90 _RCAP2L	=	0x00ca
                    00CA     91 _RTL2	=	0x00ca
                    00CB     92 _RCAP2H	=	0x00cb
                    00CB     93 _RTH2	=	0x00cb
                    00CC     94 _TL2	=	0x00cc
                    00CD     95 _TH2	=	0x00cd
                    00D0     96 _PSW	=	0x00d0
                    00D1     97 _MCNT0	=	0x00d1
                    00D2     98 _MCNT1	=	0x00d2
                    00D3     99 _MA	=	0x00d3
                    00D4    100 _MB	=	0x00d4
                    00D5    101 _MC	=	0x00d5
                    00D8    102 _WDCON	=	0x00d8
                    00E0    103 _ACC	=	0x00e0
                    00E8    104 _EIE	=	0x00e8
                    00EA    105 _MXAX	=	0x00ea
                    00F0    106 _B	=	0x00f0
                    00F8    107 _EIP	=	0x00f8
                    8C8A    108 _TMR0	=	0x8c8a
                    8D8B    109 _TMR1	=	0x8d8b
                    CDCC    110 _TMR2	=	0xcdcc
                    CBCA    111 _RCAP2	=	0xcbca
                            112 ;--------------------------------------------------------
                            113 ; special function bits
                            114 ;--------------------------------------------------------
                    0088    115 _IT0	=	0x0088
                    0089    116 _IE0	=	0x0089
                    008A    117 _IT1	=	0x008a
                    008B    118 _IE1	=	0x008b
                    008C    119 _TR0	=	0x008c
                    008D    120 _TF0	=	0x008d
                    008E    121 _TR1	=	0x008e
                    008F    122 _TF1	=	0x008f
                    0090    123 _T2	=	0x0090
                    0091    124 _T2EX	=	0x0091
                    0092    125 _RXD1	=	0x0092
                    0093    126 _TXD1	=	0x0093
                    0094    127 _INT2	=	0x0094
                    0095    128 _INT3	=	0x0095
                    0096    129 _INT4	=	0x0096
                    0097    130 _INT5	=	0x0097
                    0098    131 _RI_0	=	0x0098
                    0099    132 _TI_0	=	0x0099
                    009A    133 _RB8_0	=	0x009a
                    009B    134 _TB8_0	=	0x009b
                    009C    135 _REN_0	=	0x009c
                    009D    136 _SM2_0	=	0x009d
                    009E    137 _SM1_0	=	0x009e
                    009F    138 _SM0_0	=	0x009f
                    009F    139 _FE_0	=	0x009f
                    00A8    140 _EX0	=	0x00a8
                    00A9    141 _ET0	=	0x00a9
                    00AA    142 _EX1	=	0x00aa
                    00AB    143 _ET1	=	0x00ab
                    00AC    144 _ES0	=	0x00ac
                    00AD    145 _ET2	=	0x00ad
                    00AE    146 _ES1	=	0x00ae
                    00AF    147 _EA	=	0x00af
                    00B0    148 _RXD0	=	0x00b0
                    00B1    149 _TXD0	=	0x00b1
                    00B2    150 _INT0	=	0x00b2
                    00B3    151 _INT1	=	0x00b3
                    00B4    152 _T0	=	0x00b4
                    00B5    153 _T1	=	0x00b5
                    00B6    154 _WR	=	0x00b6
                    00B7    155 _RD	=	0x00b7
                    00B8    156 _PX0	=	0x00b8
                    00B9    157 _PT0	=	0x00b9
                    00BA    158 _PX1	=	0x00ba
                    00BB    159 _PT1	=	0x00bb
                    00BC    160 _PS0	=	0x00bc
                    00BD    161 _PT2	=	0x00bd
                    00BE    162 _PS1	=	0x00be
                    00C0    163 _RI_1	=	0x00c0
                    00C1    164 _TI_1	=	0x00c1
                    00C2    165 _RB8_1	=	0x00c2
                    00C3    166 _TB8_1	=	0x00c3
                    00C4    167 _REN_1	=	0x00c4
                    00C5    168 _SM2_1	=	0x00c5
                    00C6    169 _SM1_1	=	0x00c6
                    00C7    170 _SM0_1	=	0x00c7
                    00C7    171 _FE_1	=	0x00c7
                    00C8    172 _CP_RL	=	0x00c8
                    00C9    173 _C_T	=	0x00c9
                    00CA    174 _TR2	=	0x00ca
                    00CB    175 _EXEN2	=	0x00cb
                    00CC    176 _TCLK	=	0x00cc
                    00CD    177 _RCLK	=	0x00cd
                    00CE    178 _EXF2	=	0x00ce
                    00CF    179 _TF2	=	0x00cf
                    00D0    180 _P	=	0x00d0
                    00D1    181 _F1	=	0x00d1
                    00D2    182 _OV	=	0x00d2
                    00D3    183 _RS0	=	0x00d3
                    00D4    184 _RS1	=	0x00d4
                    00D5    185 _F0	=	0x00d5
                    00D6    186 _AC	=	0x00d6
                    00D7    187 _CY	=	0x00d7
                    00D8    188 _RWT	=	0x00d8
                    00D9    189 _EWT	=	0x00d9
                    00DA    190 _WDRF	=	0x00da
                    00DB    191 _WDIF	=	0x00db
                    00DC    192 _PFI	=	0x00dc
                    00DD    193 _EPFI	=	0x00dd
                    00DE    194 _POR	=	0x00de
                    00DF    195 _SMOD_1	=	0x00df
                    00E8    196 _EX2	=	0x00e8
                    00E9    197 _EX3	=	0x00e9
                    00EA    198 _EX4	=	0x00ea
                    00EB    199 _EX5	=	0x00eb
                    00EC    200 _EWDI	=	0x00ec
                    00ED    201 _C1IE	=	0x00ed
                    00EE    202 _C0IE	=	0x00ee
                    00EF    203 _CANBIE	=	0x00ef
                    00F8    204 _PX2	=	0x00f8
                    00F9    205 _PX3	=	0x00f9
                    00FA    206 _PX4	=	0x00fa
                    00FB    207 _PX5	=	0x00fb
                    00FC    208 _PWDI	=	0x00fc
                    00FD    209 _C1IP	=	0x00fd
                    00FE    210 _C0IP	=	0x00fe
                    00FF    211 _CANBIP	=	0x00ff
                            212 ;--------------------------------------------------------
                            213 ; overlayable register banks
                            214 ;--------------------------------------------------------
                            215 	.area REG_BANK_0	(REL,OVR,DATA)
   0000                     216 	.ds 8
                            217 ;--------------------------------------------------------
                            218 ; internal ram data
                            219 ;--------------------------------------------------------
                            220 	.area DSEG    (DATA)
                            221 ;--------------------------------------------------------
                            222 ; overlayable items in internal ram 
                            223 ;--------------------------------------------------------
                            224 	.area OSEG    (OVR,DATA)
                            225 ;--------------------------------------------------------
                            226 ; indirectly addressable internal ram data
                            227 ;--------------------------------------------------------
                            228 	.area ISEG    (DATA)
                            229 ;--------------------------------------------------------
                            230 ; absolute internal ram data
                            231 ;--------------------------------------------------------
                            232 	.area IABS    (ABS,DATA)
                            233 	.area IABS    (ABS,DATA)
                            234 ;--------------------------------------------------------
                            235 ; bit data
                            236 ;--------------------------------------------------------
                            237 	.area BSEG    (BIT)
                            238 ;--------------------------------------------------------
                            239 ; paged external ram data
                            240 ;--------------------------------------------------------
                            241 	.area PSEG    (PAG,XDATA)
                            242 ;--------------------------------------------------------
                            243 ; external ram data
                            244 ;--------------------------------------------------------
                            245 	.area XSEG    (XDATA)
   0000                     246 _i2cTransmitBuffer::
   0000                     247 	.ds 128
   0080                     248 _i2cReceiveBuffer::
   0080                     249 	.ds 128
   0100                     250 _I2CDelay_delay_1_1:
   0100                     251 	.ds 4
   0104                     252 _I2CSendStop_PARM_2:
   0104                     253 	.ds 1
   0105                     254 _I2CSendStop_PARM_3:
   0105                     255 	.ds 1
   0106                     256 _i2c_recv_PARM_2:
   0106                     257 	.ds 1
   0107                     258 _I2CSendReceive_PARM_2:
   0107                     259 	.ds 1
   0108                     260 _I2CSendReceive_PARM_3:
   0108                     261 	.ds 1
                            262 ;--------------------------------------------------------
                            263 ; absolute external ram data
                            264 ;--------------------------------------------------------
                            265 	.area XABS    (ABS,XDATA)
                            266 ;--------------------------------------------------------
                            267 ; external initialized ram data
                            268 ;--------------------------------------------------------
                            269 	.area XISEG   (XDATA)
   0000                     270 _i2cError:
   0000                     271 	.ds 1
                            272 ;--------------------------------------------------------
                            273 ; global & static initialisations
                            274 ;--------------------------------------------------------
                            275 	.area HOME    (CODE)
                            276 	.area GSINIT  (CODE)
                            277 	.area GSFINAL (CODE)
                            278 	.area GSINIT  (CODE)
                            279 ;--------------------------------------------------------
                            280 ; Home
                            281 ;--------------------------------------------------------
                            282 	.area HOME    (CODE)
                            283 	.area HOME    (CODE)
                            284 ;--------------------------------------------------------
                            285 ; code
                            286 ;--------------------------------------------------------
                            287 	.area CSEG    (CODE)
                            288 ;------------------------------------------------------------
                            289 ;Allocation info for local variables in function 'I2CDelay'
                            290 ;------------------------------------------------------------
                            291 ;delay                     Allocated with name '_I2CDelay_delay_1_1'
                            292 ;------------------------------------------------------------
                            293 ;	/home/sdcc-builder/build/sdcc-build/orig/sdcc/device/lib/ds390/i2c390.c:41: void I2CDelay(volatile long delay) {
                            294 ;	-----------------------------------------
                            295 ;	 function I2CDelay
                            296 ;	-----------------------------------------
   0000                     297 _I2CDelay:
                    0002    298 	ar2 = 0x02
                    0003    299 	ar3 = 0x03
                    0004    300 	ar4 = 0x04
                    0005    301 	ar5 = 0x05
                    0006    302 	ar6 = 0x06
                    0007    303 	ar7 = 0x07
                    0000    304 	ar0 = 0x00
                    0001    305 	ar1 = 0x01
   0000 75 86 01            306 	mov     dps, #1
   0003 90s00r01r00         307 	mov     dptr, #_I2CDelay_delay_1_1
   0007 E5 82               308 	mov	a,dpl
   0009 F0                  309 	movx	@dptr,a
   000A A3                  310 	inc	dptr
   000B E5 83               311 	mov	a,dph
   000D F0                  312 	movx	@dptr,a
   000E A3                  313 	inc	dptr
   000F E5 93               314 	mov	a,dpx
   0011 F0                  315 	movx	@dptr,a
   0012 A3                  316 	inc	dptr
   0013 E5 F0               317 	mov	a,b
   0015 F0                  318 	movx	@dptr,a
   0016 75 86 00            319 	mov	dps,#0
                            320 ;	/home/sdcc-builder/build/sdcc-build/orig/sdcc/device/lib/ds390/i2c390.c:42: while (delay--)
   0019                     321 00101$:
   0019 90s00r01r00         322 	mov	dptr,#_I2CDelay_delay_1_1
                            323 ;	genAssign: resultIsFar = FALSE
   001D E0                  324 	movx	a,@dptr
   001E FA                  325 	mov	r2,a
   001F A3                  326 	inc	dptr
   0020 E0                  327 	movx	a,@dptr
   0021 FB                  328 	mov	r3,a
   0022 A3                  329 	inc	dptr
   0023 E0                  330 	movx	a,@dptr
   0024 FC                  331 	mov	r4,a
   0025 A3                  332 	inc	dptr
   0026 E0                  333 	movx	a,@dptr
   0027 FD                  334 	mov	r5,a
   0028 90s00r01r00         335 	mov	dptr,#_I2CDelay_delay_1_1
   002C E0                  336 	movx	a,@dptr
   002D 24 FF               337 	add	a,#0xFF
   002F FE                  338 	mov	r6,a
   0030 A3                  339 	inc	dptr
   0031 E0                  340 	movx	a,@dptr
   0032 34 FF               341 	addc	a,#0xFF
   0034 FF                  342 	mov	r7,a
   0035 A3                  343 	inc	dptr
   0036 E0                  344 	movx	a,@dptr
   0037 34 FF               345 	addc	a,#0xFF
   0039 F8                  346 	mov	r0,a
   003A A3                  347 	inc	dptr
   003B E0                  348 	movx	a,@dptr
   003C 34 FF               349 	addc	a,#0xFF
   003E F9                  350 	mov	r1,a
                            351 ;	genAssign: resultIsFar = TRUE
   003F 90s00r01r00         352 	mov	dptr,#_I2CDelay_delay_1_1
   0043 EE                  353 	mov	a,r6
   0044 F0                  354 	movx	@dptr,a
   0045 A3                  355 	inc	dptr
   0046 EF                  356 	mov	a,r7
   0047 F0                  357 	movx	@dptr,a
   0048 A3                  358 	inc	dptr
   0049 E8                  359 	mov	a,r0
   004A F0                  360 	movx	@dptr,a
   004B A3                  361 	inc	dptr
   004C E9                  362 	mov	a,r1
   004D F0                  363 	movx	@dptr,a
   004E EA                  364 	mov	a,r2
   004F 4B                  365 	orl	a,r3
   0050 4C                  366 	orl	a,r4
   0051 4D                  367 	orl	a,r5
   0052 70 C5               368 	jnz  00101$
   0054                     369 00107$:
   0054                     370 00104$:
   0054 22                  371 	ret
                            372 ;------------------------------------------------------------
                            373 ;Allocation info for local variables in function 'I2CReset'
                            374 ;------------------------------------------------------------
                            375 ;------------------------------------------------------------
                            376 ;	/home/sdcc-builder/build/sdcc-build/orig/sdcc/device/lib/ds390/i2c390.c:53: char I2CReset(void)
                            377 ;	-----------------------------------------
                            378 ;	 function I2CReset
                            379 ;	-----------------------------------------
   0055                     380 _I2CReset:
                            381 ;	/home/sdcc-builder/build/sdcc-build/orig/sdcc/device/lib/ds390/i2c390.c:55: SDA_LOW;
                            382 ;	/home/sdcc-builder/build/sdcc-build/orig/sdcc/device/lib/ds390/i2c390.c:56: SCL_LOW;
   0055 53 A1 FC            383 	anl  _P5,#(0xFD & 0xFE)
                            384 ;	/home/sdcc-builder/build/sdcc-build/orig/sdcc/device/lib/ds390/i2c390.c:57: SCL_HIGH;
   0058 43 A1 01            385 	orl	_P5,#0x01
                            386 ;	/home/sdcc-builder/build/sdcc-build/orig/sdcc/device/lib/ds390/i2c390.c:58: SDA_HIGH;
   005B 43 A1 02            387 	orl	_P5,#0x02
                            388 ;	/home/sdcc-builder/build/sdcc-build/orig/sdcc/device/lib/ds390/i2c390.c:59: i2cError = 0;
                            389 ;	genAssign: resultIsFar = TRUE
   005E 90s00r00r00         390 	mov	dptr,#_i2cError
   0062 E4                  391 	clr  a
   0063 F0                  392 	movx	@dptr,a
                            393 ;	/home/sdcc-builder/build/sdcc-build/orig/sdcc/device/lib/ds390/i2c390.c:60: return (SCL_IN && SDA_IN);
   0064 E5 A1               394 	mov	a,_P5
   0066 30 E0 08            395 	jnb  acc.0,00103$
   0069                     396 00107$:
   0069 E5 A1               397 	mov	a,_P5
   006B C3                  398 	clr	c
   006C 13                  399 	rrc	a
   006D FA                  400 	mov  r2,a
   006E 20 E0 04            401 	jb   acc.0,00104$
   0071                     402 00108$:
   0071                     403 00103$:
                            404 ;	genAssign: resultIsFar = FALSE
   0071 7A 00               405 	mov	r2,#0x00
   0073 80 02               406 	sjmp 00105$
   0075                     407 00104$:
                            408 ;	genAssign: resultIsFar = FALSE
   0075 7A 01               409 	mov	r2,#0x01
   0077                     410 00105$:
   0077 8A 82               411 	mov	dpl,r2
   0079                     412 00101$:
   0079 22                  413 	ret
                            414 ;------------------------------------------------------------
                            415 ;Allocation info for local variables in function 'I2CStart'
                            416 ;------------------------------------------------------------
                            417 ;------------------------------------------------------------
                            418 ;	/home/sdcc-builder/build/sdcc-build/orig/sdcc/device/lib/ds390/i2c390.c:69: char I2CStart(void)
                            419 ;	-----------------------------------------
                            420 ;	 function I2CStart
                            421 ;	-----------------------------------------
   007A                     422 _I2CStart:
                            423 ;	/home/sdcc-builder/build/sdcc-build/orig/sdcc/device/lib/ds390/i2c390.c:71: SDA_HIGH;
   007A 43 A1 02            424 	orl	_P5,#0x02
                            425 ;	/home/sdcc-builder/build/sdcc-build/orig/sdcc/device/lib/ds390/i2c390.c:72: SCL_HIGH;
   007D 43 A1 01            426 	orl	_P5,#0x01
                            427 ;	/home/sdcc-builder/build/sdcc-build/orig/sdcc/device/lib/ds390/i2c390.c:73: I2CDelay(I2CDELAY);
   0080 90 00 00 01         428 	mov	dptr,#0x000001
   0084 75 F0 00            429 	mov	b,#0x00
   0087 12s00r00r00         430 	lcall	_I2CDelay
                            431 ;	/home/sdcc-builder/build/sdcc-build/orig/sdcc/device/lib/ds390/i2c390.c:74: SDA_LOW;        /* Pull SDA down... */
   008B 53 A1 FD            432 	anl	_P5,#0xFD
                            433 ;	/home/sdcc-builder/build/sdcc-build/orig/sdcc/device/lib/ds390/i2c390.c:75: I2CDelay(I2CDELAY);
   008E 90 00 00 01         434 	mov	dptr,#0x000001
   0092 75 F0 00            435 	mov	b,#0x00
   0095 12s00r00r00         436 	lcall	_I2CDelay
                            437 ;	/home/sdcc-builder/build/sdcc-build/orig/sdcc/device/lib/ds390/i2c390.c:76: SCL_LOW;        /* ...and then SCL -> start condition. */
   0099 53 A1 FE            438 	anl	_P5,#0xFE
                            439 ;	/home/sdcc-builder/build/sdcc-build/orig/sdcc/device/lib/ds390/i2c390.c:77: I2CDelay(I2CDELAY);
   009C 90 00 00 01         440 	mov	dptr,#0x000001
   00A0 75 F0 00            441 	mov	b,#0x00
   00A3 12s00r00r00         442 	lcall	_I2CDelay
                            443 ;	/home/sdcc-builder/build/sdcc-build/orig/sdcc/device/lib/ds390/i2c390.c:78: return 0;
   00A7 75 82 00            444 	mov	dpl,#0x00
   00AA                     445 00101$:
   00AA 22                  446 	ret
                            447 ;------------------------------------------------------------
                            448 ;Allocation info for local variables in function 'I2CStop'
                            449 ;------------------------------------------------------------
                            450 ;------------------------------------------------------------
                            451 ;	/home/sdcc-builder/build/sdcc-build/orig/sdcc/device/lib/ds390/i2c390.c:87: char I2CStop(void)
                            452 ;	-----------------------------------------
                            453 ;	 function I2CStop
                            454 ;	-----------------------------------------
   00AB                     455 _I2CStop:
                            456 ;	/home/sdcc-builder/build/sdcc-build/orig/sdcc/device/lib/ds390/i2c390.c:89: SDA_LOW;
   00AB 53 A1 FD            457 	anl	_P5,#0xFD
                            458 ;	/home/sdcc-builder/build/sdcc-build/orig/sdcc/device/lib/ds390/i2c390.c:90: SCL_HIGH;        /* Let SCL go up */
   00AE 43 A1 01            459 	orl	_P5,#0x01
                            460 ;	/home/sdcc-builder/build/sdcc-build/orig/sdcc/device/lib/ds390/i2c390.c:91: I2CDelay(I2CDELAY);
   00B1 90 00 00 01         461 	mov	dptr,#0x000001
   00B5 75 F0 00            462 	mov	b,#0x00
   00B8 12s00r00r00         463 	lcall	_I2CDelay
                            464 ;	/home/sdcc-builder/build/sdcc-build/orig/sdcc/device/lib/ds390/i2c390.c:92: SDA_HIGH;        /* ...and then SDA up -> stop condition. */
   00BC 43 A1 02            465 	orl	_P5,#0x02
                            466 ;	/home/sdcc-builder/build/sdcc-build/orig/sdcc/device/lib/ds390/i2c390.c:93: I2CDelay(I2CDELAY);
   00BF 90 00 00 01         467 	mov	dptr,#0x000001
   00C3 75 F0 00            468 	mov	b,#0x00
   00C6 12s00r00r00         469 	lcall	_I2CDelay
                            470 ;	/home/sdcc-builder/build/sdcc-build/orig/sdcc/device/lib/ds390/i2c390.c:95: return (SCL_IN && SDA_IN);  /* Both will be up, if everything is fine */
   00CA E5 A1               471 	mov	a,_P5
   00CC 30 E0 08            472 	jnb  acc.0,00103$
   00CF                     473 00107$:
   00CF E5 A1               474 	mov	a,_P5
   00D1 C3                  475 	clr	c
   00D2 13                  476 	rrc	a
   00D3 FA                  477 	mov  r2,a
   00D4 20 E0 04            478 	jb   acc.0,00104$
   00D7                     479 00108$:
   00D7                     480 00103$:
                            481 ;	genAssign: resultIsFar = FALSE
   00D7 7A 00               482 	mov	r2,#0x00
   00D9 80 02               483 	sjmp 00105$
   00DB                     484 00104$:
                            485 ;	genAssign: resultIsFar = FALSE
   00DB 7A 01               486 	mov	r2,#0x01
   00DD                     487 00105$:
   00DD 8A 82               488 	mov	dpl,r2
   00DF                     489 00101$:
   00DF 22                  490 	ret
                            491 ;------------------------------------------------------------
                            492 ;Allocation info for local variables in function 'BitOutI2C'
                            493 ;------------------------------------------------------------
                            494 ;bout                      Allocated to registers r2 
                            495 ;------------------------------------------------------------
                            496 ;	/home/sdcc-builder/build/sdcc-build/orig/sdcc/device/lib/ds390/i2c390.c:104: char BitOutI2C(unsigned char bout)
                            497 ;	-----------------------------------------
                            498 ;	 function BitOutI2C
                            499 ;	-----------------------------------------
   00E0                     500 _BitOutI2C:
   00E0 AA 82               501 	mov	r2,dpl
                            502 ;	/home/sdcc-builder/build/sdcc-build/orig/sdcc/device/lib/ds390/i2c390.c:106: SDA_OUT(bout);              /* Put data out on SDA */
   00E2 EA                  503 	mov	a,r2
   00E3 60 05               504 	jz  00108$
   00E5                     505 00114$:
   00E5 43 A1 02            506 	orl	_P5,#0x02
   00E8 80 03               507 	sjmp 00109$
   00EA                     508 00108$:
   00EA 53 A1 FD            509 	anl	_P5,#0xFD
   00ED                     510 00109$:
                            511 ;	/home/sdcc-builder/build/sdcc-build/orig/sdcc/device/lib/ds390/i2c390.c:107: I2CDelay(I2CDELAY);
   00ED C0 02               512 	push	ar2
   00EF 90 00 00 01         513 	mov	dptr,#0x000001
   00F3 75 F0 00            514 	mov	b,#0x00
   00F6 12s00r00r00         515 	lcall	_I2CDelay
   00FA D0 02               516 	pop	ar2
                            517 ;	/home/sdcc-builder/build/sdcc-build/orig/sdcc/device/lib/ds390/i2c390.c:108: SCL_HIGH;                   /* Let SCL go up */
   00FC 43 A1 01            518 	orl	_P5,#0x01
                            519 ;	/home/sdcc-builder/build/sdcc-build/orig/sdcc/device/lib/ds390/i2c390.c:109: while(!SCL_IN)              /* Wait until all other devices are ready */
   00FF                     520 00101$:
   00FF E5 A1               521 	mov	a,_P5
   0101 30 E0 FB            522 	jnb  acc.0,00101$
   0104                     523 00115$:
                            524 ;	/home/sdcc-builder/build/sdcc-build/orig/sdcc/device/lib/ds390/i2c390.c:114: if (SDA_IN != bout)         /* Arbitration lost, release bus and return */
   0104 E5 A1               525 	mov	a,_P5
   0106 C3                  526 	clr	c
   0107 13                  527 	rrc	a
   0108 54 01               528 	anl  a,#0x01
   010A FB                  529 	mov  r3,a
   010B B5 02 02            530 	cjne	a,ar2,00116$
   010E 80 16               531 	sjmp 00105$
   0110                     532 00116$:
                            533 ;	/home/sdcc-builder/build/sdcc-build/orig/sdcc/device/lib/ds390/i2c390.c:116: SDA_HIGH;               /* Should be up anyway, but make sure */
   0110 43 A1 02            534 	orl	_P5,#0x02
                            535 ;	/home/sdcc-builder/build/sdcc-build/orig/sdcc/device/lib/ds390/i2c390.c:117: i2cError = I2CERR_LOST;
                            536 ;	genAssign: resultIsFar = TRUE
   0113 90s00r00r00         537 	mov	dptr,#_i2cError
   0117 74 02               538 	mov	a,#0x02
   0119 F0                  539 	movx	@dptr,a
                            540 ;	/home/sdcc-builder/build/sdcc-build/orig/sdcc/device/lib/ds390/i2c390.c:118: I2CDumpError(i2cError);
   011A 75 82 02            541 	mov	dpl,#0x02
   011D 12s00r03rD0         542 	lcall	_I2CDumpError
                            543 ;	/home/sdcc-builder/build/sdcc-build/orig/sdcc/device/lib/ds390/i2c390.c:119: return 1;
   0121 75 82 01            544 	mov	dpl,#0x01
   0124 80 1C               545 	sjmp 00106$
   0126                     546 00105$:
                            547 ;	/home/sdcc-builder/build/sdcc-build/orig/sdcc/device/lib/ds390/i2c390.c:121: I2CDelay(I2CDELAY);
   0126 90 00 00 01         548 	mov	dptr,#0x000001
   012A 75 F0 00            549 	mov	b,#0x00
   012D 12s00r00r00         550 	lcall	_I2CDelay
                            551 ;	/home/sdcc-builder/build/sdcc-build/orig/sdcc/device/lib/ds390/i2c390.c:122: SCL_LOW;                    /* Pull SCL back down */
   0131 53 A1 FE            552 	anl	_P5,#0xFE
                            553 ;	/home/sdcc-builder/build/sdcc-build/orig/sdcc/device/lib/ds390/i2c390.c:123: I2CDelay(I2CDELAY);
   0134 90 00 00 01         554 	mov	dptr,#0x000001
   0138 75 F0 00            555 	mov	b,#0x00
   013B 12s00r00r00         556 	lcall	_I2CDelay
                            557 ;	/home/sdcc-builder/build/sdcc-build/orig/sdcc/device/lib/ds390/i2c390.c:124: return 0;                   /* OK */
   013F 75 82 00            558 	mov	dpl,#0x00
   0142                     559 00106$:
   0142 22                  560 	ret
                            561 ;------------------------------------------------------------
                            562 ;Allocation info for local variables in function 'BitInI2C'
                            563 ;------------------------------------------------------------
                            564 ;bin                       Allocated to registers r2 
                            565 ;------------------------------------------------------------
                            566 ;	/home/sdcc-builder/build/sdcc-build/orig/sdcc/device/lib/ds390/i2c390.c:132: char BitInI2C(void)
                            567 ;	-----------------------------------------
                            568 ;	 function BitInI2C
                            569 ;	-----------------------------------------
   0143                     570 _BitInI2C:
                            571 ;	/home/sdcc-builder/build/sdcc-build/orig/sdcc/device/lib/ds390/i2c390.c:137: SDA_HIGH;
   0143 43 A1 02            572 	orl	_P5,#0x02
                            573 ;	/home/sdcc-builder/build/sdcc-build/orig/sdcc/device/lib/ds390/i2c390.c:139: SCL_HIGH;                   /* Let SCL go up */
   0146 43 A1 01            574 	orl	_P5,#0x01
                            575 ;	/home/sdcc-builder/build/sdcc-build/orig/sdcc/device/lib/ds390/i2c390.c:140: while(!SCL_IN)              /* Wait for other devices */
   0149                     576 00101$:
   0149 E5 A1               577 	mov	a,_P5
   014B 30 E0 FB            578 	jnb  acc.0,00101$
   014E                     579 00108$:
                            580 ;	/home/sdcc-builder/build/sdcc-build/orig/sdcc/device/lib/ds390/i2c390.c:144: bin = SDA_IN;               /* Read in data */
   014E E5 A1               581 	mov	a,_P5
   0150 C3                  582 	clr	c
   0151 13                  583 	rrc	a
   0152 FA                  584 	mov	r2,a
   0153 53 02 01            585 	anl	ar2,#0x01
                            586 ;	/home/sdcc-builder/build/sdcc-build/orig/sdcc/device/lib/ds390/i2c390.c:145: I2CDelay(I2CDELAY);
   0156 C0 02               587 	push	ar2
   0158 90 00 00 01         588 	mov	dptr,#0x000001
   015C 75 F0 00            589 	mov	b,#0x00
   015F 12s00r00r00         590 	lcall	_I2CDelay
   0163 D0 02               591 	pop	ar2
                            592 ;	/home/sdcc-builder/build/sdcc-build/orig/sdcc/device/lib/ds390/i2c390.c:146: SCL_LOW;                    /* Pull SCL back up */
   0165 53 A1 FE            593 	anl	_P5,#0xFE
                            594 ;	/home/sdcc-builder/build/sdcc-build/orig/sdcc/device/lib/ds390/i2c390.c:147: I2CDelay(I2CDELAY);
   0168 C0 02               595 	push	ar2
   016A 90 00 00 01         596 	mov	dptr,#0x000001
   016E 75 F0 00            597 	mov	b,#0x00
   0171 12s00r00r00         598 	lcall	_I2CDelay
   0175 D0 02               599 	pop	ar2
                            600 ;	/home/sdcc-builder/build/sdcc-build/orig/sdcc/device/lib/ds390/i2c390.c:148: return bin;                 /* Return the sampled bit */
   0177 8A 82               601 	mov	dpl,r2
   0179                     602 00104$:
   0179 22                  603 	ret
                            604 ;------------------------------------------------------------
                            605 ;Allocation info for local variables in function 'ByteOutI2C'
                            606 ;------------------------------------------------------------
                            607 ;dat                       Allocated to registers r2 
                            608 ;bit_count                 Allocated to registers 
                            609 ;------------------------------------------------------------
                            610 ;	/home/sdcc-builder/build/sdcc-build/orig/sdcc/device/lib/ds390/i2c390.c:159: char ByteOutI2C(char dat)
                            611 ;	-----------------------------------------
                            612 ;	 function ByteOutI2C
                            613 ;	-----------------------------------------
   017A                     614 _ByteOutI2C:
   017A AA 82               615 	mov	r2,dpl
                            616 ;	/home/sdcc-builder/build/sdcc-build/orig/sdcc/device/lib/ds390/i2c390.c:164: while(bit_count) {
                            617 ;	genAssign: resultIsFar = FALSE
   017C 7B 08               618 	mov	r3,#0x08
   017E                     619 00108$:
   017E EB                  620 	mov	a,r3
   017F 60 53               621 	jz  00110$
   0181                     622 00121$:
                            623 ;	/home/sdcc-builder/build/sdcc-build/orig/sdcc/device/lib/ds390/i2c390.c:165: if (dat & 0x80) {
   0181 EA                  624 	mov	a,r2
   0182 30 E7 23            625 	jnb  acc.7,00106$
   0185                     626 00122$:
                            627 ;	/home/sdcc-builder/build/sdcc-build/orig/sdcc/device/lib/ds390/i2c390.c:166: if (BitOutI2C(1)) {
   0185 C0 02               628 	push	ar2
   0187 C0 03               629 	push	ar3
   0189 75 82 01            630 	mov	dpl,#0x01
   018C 12s00r00rE0         631 	lcall	_BitOutI2C
   0190 D0 03               632 	pop	ar3
   0192 D0 02               633 	pop	ar2
   0194 E5 82               634 	mov	a,dpl
   0196 60 33               635 	jz  00107$
   0198                     636 00123$:
                            637 ;	/home/sdcc-builder/build/sdcc-build/orig/sdcc/device/lib/ds390/i2c390.c:167: I2CDumpError(i2cError);
   0198 90s00r00r00         638 	mov	dptr,#_i2cError
   019C E0                  639 	movx	a,@dptr
   019D F5 82               640 	mov	dpl,a
   019F 12s00r03rD0         641 	lcall	_I2CDumpError
                            642 ;	/home/sdcc-builder/build/sdcc-build/orig/sdcc/device/lib/ds390/i2c390.c:168: return 1;
   01A3 75 82 01            643 	mov	dpl,#0x01
   01A6 80 49               644 	sjmp 00113$
   01A8                     645 00106$:
                            646 ;	/home/sdcc-builder/build/sdcc-build/orig/sdcc/device/lib/ds390/i2c390.c:171: if (BitOutI2C(0)) {
   01A8 C0 02               647 	push	ar2
   01AA C0 03               648 	push	ar3
   01AC 75 82 00            649 	mov	dpl,#0x00
   01AF 12s00r00rE0         650 	lcall	_BitOutI2C
   01B3 D0 03               651 	pop	ar3
   01B5 D0 02               652 	pop	ar2
   01B7 E5 82               653 	mov	a,dpl
   01B9 60 10               654 	jz  00107$
   01BB                     655 00124$:
                            656 ;	/home/sdcc-builder/build/sdcc-build/orig/sdcc/device/lib/ds390/i2c390.c:172: I2CDumpError(i2cError);
   01BB 90s00r00r00         657 	mov	dptr,#_i2cError
   01BF E0                  658 	movx	a,@dptr
   01C0 F5 82               659 	mov	dpl,a
   01C2 12s00r03rD0         660 	lcall	_I2CDumpError
                            661 ;	/home/sdcc-builder/build/sdcc-build/orig/sdcc/device/lib/ds390/i2c390.c:173: return 1;
   01C6 75 82 01            662 	mov	dpl,#0x01
   01C9 80 26               663 	sjmp 00113$
   01CB                     664 00107$:
                            665 ;	/home/sdcc-builder/build/sdcc-build/orig/sdcc/device/lib/ds390/i2c390.c:176: dat <<= 1;
   01CB EA                  666 	mov	a,r2
   01CC 25 E0               667 	add	a,acc
   01CE FC                  668 	mov	r4,a
                            669 ;	genAssign: resultIsFar = TRUE
   01CF 8C 02               670 	mov	ar2,r4
                            671 ;	/home/sdcc-builder/build/sdcc-build/orig/sdcc/device/lib/ds390/i2c390.c:177: bit_count--;
   01D1 1B                  672 	dec	r3
   01D2 80 AA               673 	sjmp 00108$
   01D4                     674 00110$:
                            675 ;	/home/sdcc-builder/build/sdcc-build/orig/sdcc/device/lib/ds390/i2c390.c:180: if (BitInI2C()) {
   01D4 12s00r01r43         676 	lcall	_BitInI2C
   01D8 E5 82               677 	mov	a,dpl
   01DA 60 12               678 	jz  00112$
   01DC                     679 00125$:
                            680 ;	/home/sdcc-builder/build/sdcc-build/orig/sdcc/device/lib/ds390/i2c390.c:181: i2cError = I2CERR_NAK;
                            681 ;	genAssign: resultIsFar = TRUE
   01DC 90s00r00r00         682 	mov	dptr,#_i2cError
   01E0 74 01               683 	mov	a,#0x01
   01E2 F0                  684 	movx	@dptr,a
                            685 ;	/home/sdcc-builder/build/sdcc-build/orig/sdcc/device/lib/ds390/i2c390.c:182: I2CDumpError(i2cError);
   01E3 75 82 01            686 	mov	dpl,#0x01
   01E6 12s00r03rD0         687 	lcall	_I2CDumpError
                            688 ;	/home/sdcc-builder/build/sdcc-build/orig/sdcc/device/lib/ds390/i2c390.c:183: return 1;
   01EA 75 82 01            689 	mov	dpl,#0x01
                            690 ;	/home/sdcc-builder/build/sdcc-build/orig/sdcc/device/lib/ds390/i2c390.c:185: return 0;
   01ED 22                  691 	ret
   01EE                     692 00112$:
   01EE 75 82 00            693 	mov     dpl,#0x00
   01F1                     694 00113$:
   01F1 22                  695 	ret
                            696 ;------------------------------------------------------------
                            697 ;Allocation info for local variables in function 'I2CByteIn'
                            698 ;------------------------------------------------------------
                            699 ;ack                       Allocated to registers r2 
                            700 ;bit_count                 Allocated to registers 
                            701 ;byte_in                   Allocated to registers r3 
                            702 ;------------------------------------------------------------
                            703 ;	/home/sdcc-builder/build/sdcc-build/orig/sdcc/device/lib/ds390/i2c390.c:196: char I2CByteIn(char ack)
                            704 ;	-----------------------------------------
                            705 ;	 function I2CByteIn
                            706 ;	-----------------------------------------
   01F2                     707 _I2CByteIn:
   01F2 AA 82               708 	mov	r2,dpl
                            709 ;	/home/sdcc-builder/build/sdcc-build/orig/sdcc/device/lib/ds390/i2c390.c:201: byte_in = 0;
                            710 ;	genAssign: resultIsFar = TRUE
   01F4 7B 00               711 	mov	r3,#0x00
                            712 ;	/home/sdcc-builder/build/sdcc-build/orig/sdcc/device/lib/ds390/i2c390.c:203: while(bit_count)
                            713 ;	genAssign: resultIsFar = FALSE
   01F6 7C 08               714 	mov	r4,#0x08
   01F8                     715 00103$:
   01F8 EC                  716 	mov	a,r4
   01F9 60 20               717 	jz  00105$
   01FB                     718 00112$:
                            719 ;	/home/sdcc-builder/build/sdcc-build/orig/sdcc/device/lib/ds390/i2c390.c:205: byte_in <<= 1;
   01FB EB                  720 	mov	a,r3
   01FC 25 E0               721 	add	a,acc
   01FE FD                  722 	mov	r5,a
                            723 ;	genAssign: resultIsFar = TRUE
   01FF 8D 03               724 	mov	ar3,r5
                            725 ;	/home/sdcc-builder/build/sdcc-build/orig/sdcc/device/lib/ds390/i2c390.c:206: if (BitInI2C()) byte_in |= 0x01;
   0201 C0 02               726 	push	ar2
   0203 C0 03               727 	push	ar3
   0205 C0 04               728 	push	ar4
   0207 12s00r01r43         729 	lcall	_BitInI2C
   020B D0 04               730 	pop	ar4
   020D D0 03               731 	pop	ar3
   020F D0 02               732 	pop	ar2
   0211 E5 82               733 	mov	a,dpl
   0213 60 03               734 	jz  00102$
   0215                     735 00113$:
   0215 43 03 01            736 	orl	ar3,#0x01
   0218                     737 00102$:
                            738 ;	/home/sdcc-builder/build/sdcc-build/orig/sdcc/device/lib/ds390/i2c390.c:207: bit_count--;
   0218 1C                  739 	dec	r4
   0219 80 DD               740 	sjmp 00103$
   021B                     741 00105$:
                            742 ;	/home/sdcc-builder/build/sdcc-build/orig/sdcc/device/lib/ds390/i2c390.c:210: BitOutI2C(ack);
   021B C0 03               743 	push	ar3
   021D 8A 82               744 	mov	dpl,r2
   021F 12s00r00rE0         745 	lcall	_BitOutI2C
   0223 D0 03               746 	pop	ar3
                            747 ;	/home/sdcc-builder/build/sdcc-build/orig/sdcc/device/lib/ds390/i2c390.c:211: SDA_HIGH;             /* Added 18-Jul-95 - thanks to Ray Bellis */
   0225 43 A1 02            748 	orl	_P5,#0x02
                            749 ;	/home/sdcc-builder/build/sdcc-build/orig/sdcc/device/lib/ds390/i2c390.c:212: return byte_in;
   0228 8B 82               750 	mov	dpl,r3
   022A                     751 00106$:
   022A 22                  752 	ret
                            753 ;------------------------------------------------------------
                            754 ;Allocation info for local variables in function 'I2CSendStop'
                            755 ;------------------------------------------------------------
                            756 ;count                     Allocated with name '_I2CSendStop_PARM_2'
                            757 ;send_stop                 Allocated with name '_I2CSendStop_PARM_3'
                            758 ;addr                      Allocated to registers r2 
                            759 ;byteptr                   Allocated to registers 
                            760 ;byte_out                  Allocated to registers r2 
                            761 ;------------------------------------------------------------
                            762 ;	/home/sdcc-builder/build/sdcc-build/orig/sdcc/device/lib/ds390/i2c390.c:221: char I2CSendStop(char addr, char count, char send_stop)
                            763 ;	-----------------------------------------
                            764 ;	 function I2CSendStop
                            765 ;	-----------------------------------------
   022B                     766 _I2CSendStop:
   022B AA 82               767 	mov	r2,dpl
                            768 ;	/home/sdcc-builder/build/sdcc-build/orig/sdcc/device/lib/ds390/i2c390.c:225: if (I2CStart()) return 1;
   022D C0 02               769 	push	ar2
   022F 12s00r00r7A         770 	lcall	_I2CStart
   0233 D0 02               771 	pop	ar2
   0235 E5 82               772 	mov	a,dpl
   0237 60 05               773 	jz  00102$
   0239                     774 00122$:
   0239 75 82 01            775 	mov	dpl,#0x01
   023C 80 7B               776 	sjmp 00113$
   023E                     777 00102$:
                            778 ;	/home/sdcc-builder/build/sdcc-build/orig/sdcc/device/lib/ds390/i2c390.c:226: i2cError = 0;
                            779 ;	genAssign: resultIsFar = TRUE
   023E 90s00r00r00         780 	mov	dptr,#_i2cError
   0242 E4                  781 	clr  a
   0243 F0                  782 	movx	@dptr,a
                            783 ;	/home/sdcc-builder/build/sdcc-build/orig/sdcc/device/lib/ds390/i2c390.c:228: byte_out = addr & 0xfe;     /* Ensure that it's a write address */
   0244 53 02 FE            784 	anl	ar2,#0xFE
                            785 ;	/home/sdcc-builder/build/sdcc-build/orig/sdcc/device/lib/ds390/i2c390.c:229: count++;                    /* Include slave address to byte count */
   0247 90s00r01r04         786 	mov	dptr,#_I2CSendStop_PARM_2
                            787 ;	genAssign: resultIsFar = FALSE
   024B E0                  788 	movx	a,@dptr
   024C FB                  789 	mov	r3,a
   024D 90s00r01r04         790 	mov	dptr,#_I2CSendStop_PARM_2
   0251 74 01               791 	mov	a,#0x01
   0253 2B                  792 	add	a,r3
   0254 F0                  793 	movx	@dptr,a
                            794 ;	/home/sdcc-builder/build/sdcc-build/orig/sdcc/device/lib/ds390/i2c390.c:231: while(count)
                            795 ;	genAssign: resultIsFar = FALSE
   0255 7B 00               796 	mov	r3,#0x00
   0257 90s00r01r04         797 	mov	dptr,#_I2CSendStop_PARM_2
                            798 ;	genAssign: resultIsFar = FALSE
   025B E0                  799 	movx	a,@dptr
   025C FC                  800 	mov	r4,a
   025D                     801 00108$:
   025D EC                  802 	mov	a,r4
   025E 60 4B               803 	jz  00110$
   0260                     804 00123$:
                            805 ;	/home/sdcc-builder/build/sdcc-build/orig/sdcc/device/lib/ds390/i2c390.c:233: if (ByteOutI2C(byte_out))
   0260 C0 03               806 	push	ar3
   0262 C0 04               807 	push	ar4
   0264 8A 82               808 	mov	dpl,r2
   0266 12s00r01r7A         809 	lcall	_ByteOutI2C
   026A D0 04               810 	pop	ar4
   026C D0 03               811 	pop	ar3
   026E E5 82               812 	mov	a,dpl
   0270 60 22               813 	jz  00107$
   0272                     814 00124$:
                            815 ;	/home/sdcc-builder/build/sdcc-build/orig/sdcc/device/lib/ds390/i2c390.c:235: if (i2cError == I2CERR_NAK && send_stop) I2CStop();
   0272 90s00r00r00         816 	mov	dptr,#_i2cError
   0276 E0                  817 	movx	a,@dptr
   0277 B4 01 0B            818 	cjne a,#0x01,00104$
   027A                     819 00126$:
   027A 90s00r01r05         820 	mov	dptr,#_I2CSendStop_PARM_3
   027E E0                  821 	movx	a,@dptr
   027F 60 04               822 	jz  00104$
   0281                     823 00127$:
   0281 12s00r00rAB         824 	lcall	_I2CStop
   0285                     825 00104$:
                            826 ;	/home/sdcc-builder/build/sdcc-build/orig/sdcc/device/lib/ds390/i2c390.c:236: return i2cError;
   0285 75 86 01            827 	mov     dps, #1
   0288 90s00r00r00         828 	mov     dptr, #_i2cError
   028C E0                  829 	movx	a,@dptr
   028D F5 82               830 	mov	dpl,a
   028F 75 86 00            831 	mov	dps,#0
   0292 80 25               832 	sjmp 00113$
   0294                     833 00107$:
                            834 ;	/home/sdcc-builder/build/sdcc-build/orig/sdcc/device/lib/ds390/i2c390.c:238: byte_out = i2cTransmitBuffer[byteptr];
   0294 EB                  835 	mov	a,r3
   0295 24r00               836 	add	a,#_i2cTransmitBuffer
   0297 F5 82               837 	mov	dpl,a
   0299 E4                  838 	clr	a
   029A 34s00               839 	addc	a,#(_i2cTransmitBuffer >> 8)
   029C F5 83               840 	mov	dph,a
   029E E4                  841 	clr	a
   029F 34s00               842 	addc	a,#(_i2cTransmitBuffer >> 16)
   02A1 F5 93               843 	mov	dpx,a
   02A3 E0                  844 	movx	a,@dptr
   02A4 FD                  845 	mov	r5,a
                            846 ;	genAssign: resultIsFar = TRUE
   02A5 8D 02               847 	mov	ar2,r5
                            848 ;	/home/sdcc-builder/build/sdcc-build/orig/sdcc/device/lib/ds390/i2c390.c:239: byteptr++;
   02A7 0B                  849 	inc	r3
                            850 ;	/home/sdcc-builder/build/sdcc-build/orig/sdcc/device/lib/ds390/i2c390.c:240: count--;
   02A8 1C                  851 	dec	r4
   02A9 80 B2               852 	sjmp 00108$
   02AB                     853 00110$:
                            854 ;	/home/sdcc-builder/build/sdcc-build/orig/sdcc/device/lib/ds390/i2c390.c:243: if (send_stop) I2CStop();
   02AB 90s00r01r05         855 	mov	dptr,#_I2CSendStop_PARM_3
   02AF E0                  856 	movx	a,@dptr
   02B0 60 04               857 	jz  00112$
   02B2                     858 00128$:
   02B2 12s00r00rAB         859 	lcall	_I2CStop
   02B6                     860 00112$:
                            861 ;	/home/sdcc-builder/build/sdcc-build/orig/sdcc/device/lib/ds390/i2c390.c:244: return 0;
   02B6 75 82 00            862 	mov	dpl,#0x00
   02B9                     863 00113$:
   02B9 22                  864 	ret
                            865 ;------------------------------------------------------------
                            866 ;Allocation info for local variables in function 'i2c_recv'
                            867 ;------------------------------------------------------------
                            868 ;count                     Allocated with name '_i2c_recv_PARM_2'
                            869 ;addr                      Allocated to registers r2 
                            870 ;byteptr                   Allocated to registers 
                            871 ;byte_in                   Allocated to registers r2 
                            872 ;------------------------------------------------------------
                            873 ;	/home/sdcc-builder/build/sdcc-build/orig/sdcc/device/lib/ds390/i2c390.c:253: char i2c_recv(char addr, char count)
                            874 ;	-----------------------------------------
                            875 ;	 function i2c_recv
                            876 ;	-----------------------------------------
   02BA                     877 _i2c_recv:
   02BA AA 82               878 	mov	r2,dpl
                            879 ;	/home/sdcc-builder/build/sdcc-build/orig/sdcc/device/lib/ds390/i2c390.c:257: if (I2CStart()) return 1;
   02BC C0 02               880 	push	ar2
   02BE 12s00r00r7A         881 	lcall	_I2CStart
   02C2 D0 02               882 	pop	ar2
   02C4 E5 82               883 	mov	a,dpl
   02C6 60 07               884 	jz  00102$
   02C8                     885 00125$:
   02C8 75 82 01            886 	mov	dpl,#0x01
   02CB 02s00r03r5B         887 	ljmp	00113$
   02CF                     888 00102$:
                            889 ;	/home/sdcc-builder/build/sdcc-build/orig/sdcc/device/lib/ds390/i2c390.c:258: i2cError = 0;
                            890 ;	genAssign: resultIsFar = TRUE
   02CF 90s00r00r00         891 	mov	dptr,#_i2cError
   02D3 E4                  892 	clr  a
   02D4 F0                  893 	movx	@dptr,a
                            894 ;	/home/sdcc-builder/build/sdcc-build/orig/sdcc/device/lib/ds390/i2c390.c:261: byte_in = addr | 0x01;
   02D5 43 02 01            895 	orl	ar2,#0x01
                            896 ;	/home/sdcc-builder/build/sdcc-build/orig/sdcc/device/lib/ds390/i2c390.c:263: if (ByteOutI2C(byte_in))
   02D8 8A 82               897 	mov	dpl,r2
   02DA 12s00r01r7A         898 	lcall	_ByteOutI2C
   02DE E5 82               899 	mov	a,dpl
   02E0 60 1B               900 	jz  00122$
   02E2                     901 00126$:
                            902 ;	/home/sdcc-builder/build/sdcc-build/orig/sdcc/device/lib/ds390/i2c390.c:265: if (i2cError == I2CERR_NAK) I2CStop();
   02E2 90s00r00r00         903 	mov	dptr,#_i2cError
   02E6 E0                  904 	movx	a,@dptr
   02E7 B4 01 04            905 	cjne a,#0x01,00104$
   02EA                     906 00128$:
   02EA 12s00r00rAB         907 	lcall	_I2CStop
   02EE                     908 00104$:
                            909 ;	/home/sdcc-builder/build/sdcc-build/orig/sdcc/device/lib/ds390/i2c390.c:266: return i2cError;
   02EE 75 86 01            910 	mov     dps, #1
   02F1 90s00r00r00         911 	mov     dptr, #_i2cError
   02F5 E0                  912 	movx	a,@dptr
   02F6 F5 82               913 	mov	dpl,a
   02F8 75 86 00            914 	mov	dps,#0
                            915 ;	/home/sdcc-builder/build/sdcc-build/orig/sdcc/device/lib/ds390/i2c390.c:269: while(count)
   02FB 80 5E               916 	sjmp 00113$
   02FD                     917 00122$:
   02FD 90s00r01r06         918 	mov	dptr,#_i2c_recv_PARM_2
                            919 ;	genAssign: resultIsFar = FALSE
   0301 E0                  920 	movx	a,@dptr
   0302 FB                  921 	mov	r3,a
                            922 ;	genAssign: resultIsFar = FALSE
   0303 7C 00               923 	mov	r4,#0x00
   0305                     924 00110$:
   0305 EB                  925 	mov	a,r3
   0306 60 40               926 	jz  00112$
   0308                     927 00129$:
                            928 ;	/home/sdcc-builder/build/sdcc-build/orig/sdcc/device/lib/ds390/i2c390.c:271: count-=1;
   0308 1B                  929 	dec	r3
                            930 ;	/home/sdcc-builder/build/sdcc-build/orig/sdcc/device/lib/ds390/i2c390.c:272: if (count) {
   0309 EB                  931 	mov	a,r3
   030A 60 15               932 	jz  00108$
   030C                     933 00130$:
                            934 ;	/home/sdcc-builder/build/sdcc-build/orig/sdcc/device/lib/ds390/i2c390.c:273: byte_in = I2CByteIn(0);
   030C C0 03               935 	push	ar3
   030E C0 04               936 	push	ar4
   0310 75 82 00            937 	mov	dpl,#0x00
   0313 12s00r01rF2         938 	lcall	_I2CByteIn
   0317 AD 82               939 	mov	r5,dpl
   0319 D0 04               940 	pop	ar4
   031B D0 03               941 	pop	ar3
                            942 ;	genAssign: resultIsFar = TRUE
   031D 8D 02               943 	mov	ar2,r5
   031F 80 13               944 	sjmp 00109$
   0321                     945 00108$:
                            946 ;	/home/sdcc-builder/build/sdcc-build/orig/sdcc/device/lib/ds390/i2c390.c:275: byte_in = I2CByteIn(1);   /* No ACK during last byte */
   0321 C0 03               947 	push	ar3
   0323 C0 04               948 	push	ar4
   0325 75 82 01            949 	mov	dpl,#0x01
   0328 12s00r01rF2         950 	lcall	_I2CByteIn
   032C AD 82               951 	mov	r5,dpl
   032E D0 04               952 	pop	ar4
   0330 D0 03               953 	pop	ar3
                            954 ;	genAssign: resultIsFar = TRUE
   0332 8D 02               955 	mov	ar2,r5
   0334                     956 00109$:
                            957 ;	/home/sdcc-builder/build/sdcc-build/orig/sdcc/device/lib/ds390/i2c390.c:277: i2cReceiveBuffer[byteptr] = byte_in;
   0334 EC                  958 	mov	a,r4
   0335 24r80               959 	add	a,#_i2cReceiveBuffer
   0337 F5 82               960 	mov	dpl,a
   0339 E4                  961 	clr	a
   033A 34s00               962 	addc	a,#(_i2cReceiveBuffer >> 8)
   033C F5 83               963 	mov	dph,a
   033E E4                  964 	clr	a
   033F 34s00               965 	addc	a,#(_i2cReceiveBuffer >> 16)
   0341 F5 93               966 	mov	dpx,a
   0343 EA                  967 	mov	a,r2
   0344 F0                  968 	movx	@dptr,a
                            969 ;	/home/sdcc-builder/build/sdcc-build/orig/sdcc/device/lib/ds390/i2c390.c:278: byteptr++;
   0345 0C                  970 	inc	r4
   0346 80 BD               971 	sjmp 00110$
   0348                     972 00112$:
                            973 ;	/home/sdcc-builder/build/sdcc-build/orig/sdcc/device/lib/ds390/i2c390.c:281: I2CStop();
   0348 12s00r00rAB         974 	lcall	_I2CStop
                            975 ;	/home/sdcc-builder/build/sdcc-build/orig/sdcc/device/lib/ds390/i2c390.c:283: return (i2cError ? 1 : 0);
   034C 90s00r00r00         976 	mov	dptr,#_i2cError
   0350 E0                  977 	movx	a,@dptr
   0351 60 04               978 	jz  00115$
   0353                     979 00131$:
                            980 ;	genAssign: resultIsFar = FALSE
   0353 7A 01               981 	mov	r2,#0x01
   0355 80 02               982 	sjmp 00116$
   0357                     983 00115$:
                            984 ;	genAssign: resultIsFar = FALSE
   0357 7A 00               985 	mov	r2,#0x00
   0359                     986 00116$:
   0359 8A 82               987 	mov	dpl,r2
   035B                     988 00113$:
   035B 22                  989 	ret
                            990 ;------------------------------------------------------------
                            991 ;Allocation info for local variables in function 'I2CSendReceive'
                            992 ;------------------------------------------------------------
                            993 ;tx_count                  Allocated with name '_I2CSendReceive_PARM_2'
                            994 ;rx_count                  Allocated with name '_I2CSendReceive_PARM_3'
                            995 ;addr                      Allocated to registers r2 
                            996 ;------------------------------------------------------------
                            997 ;	/home/sdcc-builder/build/sdcc-build/orig/sdcc/device/lib/ds390/i2c390.c:294: char I2CSendReceive(char addr, char tx_count, char rx_count)
                            998 ;	-----------------------------------------
                            999 ;	 function I2CSendReceive
                           1000 ;	-----------------------------------------
   035C                    1001 _I2CSendReceive:
   035C AA 82              1002 	mov	r2,dpl
                           1003 ;	/home/sdcc-builder/build/sdcc-build/orig/sdcc/device/lib/ds390/i2c390.c:296: if (I2CSendStop(addr, tx_count, 0))
   035E 90s00r01r07        1004 	mov	dptr,#_I2CSendReceive_PARM_2
                           1005 ;	genAssign: resultIsFar = TRUE
   0362 E0                 1006 	movx	a,@dptr
   0363 90s00r01r04        1007 	mov	dptr,#_I2CSendStop_PARM_2
   0367 F0                 1008 	movx	@dptr,a
                           1009 ;	genAssign: resultIsFar = TRUE
   0368 90s00r01r05        1010 	mov	dptr,#_I2CSendStop_PARM_3
   036C E4                 1011 	clr  a
   036D F0                 1012 	movx	@dptr,a
   036E C0 02              1013 	push	ar2
   0370 8A 82              1014 	mov	dpl,r2
   0372 12s00r02r2B        1015 	lcall	_I2CSendStop
   0376 D0 02              1016 	pop	ar2
   0378 E5 82              1017 	mov	a,dpl
   037A 60 13              1018 	jz  00104$
   037C                    1019 00115$:
                           1020 ;	/home/sdcc-builder/build/sdcc-build/orig/sdcc/device/lib/ds390/i2c390.c:301: if (i2cError != I2CERR_LOST) I2CStop();
   037C 90s00r00r00        1021 	mov	dptr,#_i2cError
   0380 E0                 1022 	movx	a,@dptr
   0381 B4 02 02           1023 	cjne	a,#0x02,00116$
   0384 80 04              1024 	sjmp 00102$
   0386                    1025 00116$:
   0386 12s00r00rAB        1026 	lcall	_I2CStop
   038A                    1027 00102$:
                           1028 ;	/home/sdcc-builder/build/sdcc-build/orig/sdcc/device/lib/ds390/i2c390.c:302: return 1;
   038A 75 82 01           1029 	mov	dpl,#0x01
   038D 80 40              1030 	sjmp 00107$
   038F                    1031 00104$:
                           1032 ;	/home/sdcc-builder/build/sdcc-build/orig/sdcc/device/lib/ds390/i2c390.c:305: SDA_HIGH; /* One of these may be low now, in which case the next */
   038F 43 A1 02           1033 	orl	_P5,#0x02
                           1034 ;	/home/sdcc-builder/build/sdcc-build/orig/sdcc/device/lib/ds390/i2c390.c:306: SCL_HIGH; /* start condition wouldn't be detected so make */
   0392 43 A1 01           1035 	orl	_P5,#0x01
                           1036 ;	/home/sdcc-builder/build/sdcc-build/orig/sdcc/device/lib/ds390/i2c390.c:307: I2CDelay(I2CDELAY); /*   sure that they're up and wait for one delay slot */
   0395 C0 02              1037 	push	ar2
   0397 90 00 00 01        1038 	mov	dptr,#0x000001
   039B 75 F0 00           1039 	mov	b,#0x00
   039E 12s00r00r00        1040 	lcall	_I2CDelay
   03A2 D0 02              1041 	pop	ar2
                           1042 ;	/home/sdcc-builder/build/sdcc-build/orig/sdcc/device/lib/ds390/i2c390.c:309: if (i2c_recv((char)(addr|0x01), rx_count)) return 1;
   03A4 43 02 01           1043 	orl	ar2,#0x01
   03A7 90s00r01r08        1044 	mov	dptr,#_I2CSendReceive_PARM_3
                           1045 ;	genAssign: resultIsFar = TRUE
   03AB E0                 1046 	movx	a,@dptr
   03AC 90s00r01r06        1047 	mov	dptr,#_i2c_recv_PARM_2
   03B0 F0                 1048 	movx	@dptr,a
   03B1 8A 82              1049 	mov	dpl,r2
   03B3 12s00r02rBA        1050 	lcall	_i2c_recv
   03B7 E5 82              1051 	mov	a,dpl
   03B9 60 05              1052 	jz  00106$
   03BB                    1053 00117$:
   03BB 75 82 01           1054 	mov	dpl,#0x01
   03BE 80 0F              1055 	sjmp 00107$
   03C0                    1056 00106$:
                           1057 ;	/home/sdcc-builder/build/sdcc-build/orig/sdcc/device/lib/ds390/i2c390.c:310: return (i2cError ? 1 : 0);
   03C0 90s00r00r00        1058 	mov	dptr,#_i2cError
   03C4 E0                 1059 	movx	a,@dptr
   03C5 60 04              1060 	jz  00109$
   03C7                    1061 00118$:
                           1062 ;	genAssign: resultIsFar = FALSE
   03C7 7A 01              1063 	mov	r2,#0x01
   03C9 80 02              1064 	sjmp 00110$
   03CB                    1065 00109$:
                           1066 ;	genAssign: resultIsFar = FALSE
   03CB 7A 00              1067 	mov	r2,#0x00
   03CD                    1068 00110$:
   03CD 8A 82              1069 	mov	dpl,r2
   03CF                    1070 00107$:
   03CF 22                 1071 	ret
                           1072 ;------------------------------------------------------------
                           1073 ;Allocation info for local variables in function 'I2CDumpError'
                           1074 ;------------------------------------------------------------
                           1075 ;error                     Allocated to registers 
                           1076 ;------------------------------------------------------------
                           1077 ;	/home/sdcc-builder/build/sdcc-build/orig/sdcc/device/lib/ds390/i2c390.c:317: void I2CDumpError(char error)
                           1078 ;	-----------------------------------------
                           1079 ;	 function I2CDumpError
                           1080 ;	-----------------------------------------
   03D0                    1081 _I2CDumpError:
                           1082 ;	/home/sdcc-builder/build/sdcc-build/orig/sdcc/device/lib/ds390/i2c390.c:342: error; // hush the compiler
   03D0                    1083 00101$:
   03D0 22                 1084 	ret
                           1085 	.area CSEG    (CODE)
                           1086 	.area CONST   (CODE)
                           1087 	.area XINIT   (CODE)
   0000                    1088 __xinit__i2cError:
   0000 00                 1089 	.db #0x00
                           1090 	.area CABS    (ABS,CODE)
