                              1 ;--------------------------------------------------------
                              2 ; File Created by SDCC : free open source ANSI-C Compiler
                              3 ; Version 2.8.0 #5117 (Mar 23 2008) (UNIX)
                              4 ; This file was generated Sun Mar 23 07:09:54 2008
                              5 ;--------------------------------------------------------
                              6 	.module putchar
                              7 	.optsdcc -mds390 --model-flat24
                              8 	
                              9 ;--------------------------------------------------------
                             10 ; CPU specific extensions
                             11 ;--------------------------------------------------------
                             12 .flat24 on		; 24 bit flat addressing
                    0084     13 dpl1	=	0x84
                    0085     14 dph1	=	0x85
                    0086     15 dps	=	0x86
                    0093     16 dpx	=	0x93
                    0095     17 dpx1	=	0x95
                    009B     18 esp	=	0x9B
                    009C     19 ap	=	0x9C
                    009C     20 _ap	=	0x9C
                    00D1     21 mcnt0	=	0xD1
                    00D2     22 mcnt1	=	0xD2
                    00D3     23 ma	=	0xD3
                    00D4     24 mb	=	0xD4
                    00D5     25 mc	=	0xD5
                    00D1     26 F1	=	0xD1	; user flag
                             27 ;--------------------------------------------------------
                             28 ; Public variables in this module
                             29 ;--------------------------------------------------------
                             30 	.globl _putchar
                             31 ;--------------------------------------------------------
                             32 ; special function registers
                             33 ;--------------------------------------------------------
                    0080     34 _P4	=	0x0080
                    0081     35 _SP	=	0x0081
                    0082     36 _DPL	=	0x0082
                    0083     37 _DPH	=	0x0083
                    0084     38 _DPL1	=	0x0084
                    0085     39 _DPH1	=	0x0085
                    0086     40 _DPS	=	0x0086
                    0087     41 _PCON	=	0x0087
                    0088     42 _TCON	=	0x0088
                    0089     43 _TMOD	=	0x0089
                    008A     44 _TL0	=	0x008a
                    008B     45 _TL1	=	0x008b
                    008C     46 _TH0	=	0x008c
                    008D     47 _TH1	=	0x008d
                    008E     48 _CKCON	=	0x008e
                    0090     49 _P1	=	0x0090
                    0091     50 _EXIF	=	0x0091
                    0092     51 _P4CNT	=	0x0092
                    0093     52 _DPX	=	0x0093
                    0095     53 _DPX1	=	0x0095
                    0098     54 _SCON0	=	0x0098
                    0099     55 _SBUF0	=	0x0099
                    009B     56 _ESP	=	0x009b
                    009C     57 _AP	=	0x009c
                    009D     58 _ACON	=	0x009d
                    00A0     59 _P2	=	0x00a0
                    00A1     60 _P5	=	0x00a1
                    00A2     61 _P5CNT	=	0x00a2
                    00A8     62 _IE	=	0x00a8
                    00B0     63 _P3	=	0x00b0
                    00B8     64 _IP	=	0x00b8
                    00C0     65 _SCON1	=	0x00c0
                    00C1     66 _SBUF1	=	0x00c1
                    00C4     67 _PMR	=	0x00c4
                    00C6     68 _MCON	=	0x00c6
                    00C7     69 _TA	=	0x00c7
                    00C8     70 _T2CON	=	0x00c8
                    00C9     71 _T2MOD	=	0x00c9
                    00CA     72 _RCAP2L	=	0x00ca
                    00CA     73 _RTL2	=	0x00ca
                    00CB     74 _RCAP2H	=	0x00cb
                    00CB     75 _RTH2	=	0x00cb
                    00CC     76 _TL2	=	0x00cc
                    00CD     77 _TH2	=	0x00cd
                    00D0     78 _PSW	=	0x00d0
                    00D1     79 _MCNT0	=	0x00d1
                    00D2     80 _MCNT1	=	0x00d2
                    00D3     81 _MA	=	0x00d3
                    00D4     82 _MB	=	0x00d4
                    00D5     83 _MC	=	0x00d5
                    00D8     84 _WDCON	=	0x00d8
                    00E0     85 _ACC	=	0x00e0
                    00E8     86 _EIE	=	0x00e8
                    00EA     87 _MXAX	=	0x00ea
                    00F0     88 _B	=	0x00f0
                    00F8     89 _EIP	=	0x00f8
                    8C8A     90 _TMR0	=	0x8c8a
                    8D8B     91 _TMR1	=	0x8d8b
                    CDCC     92 _TMR2	=	0xcdcc
                    CBCA     93 _RCAP2	=	0xcbca
                             94 ;--------------------------------------------------------
                             95 ; special function bits
                             96 ;--------------------------------------------------------
                    0088     97 _IT0	=	0x0088
                    0089     98 _IE0	=	0x0089
                    008A     99 _IT1	=	0x008a
                    008B    100 _IE1	=	0x008b
                    008C    101 _TR0	=	0x008c
                    008D    102 _TF0	=	0x008d
                    008E    103 _TR1	=	0x008e
                    008F    104 _TF1	=	0x008f
                    0090    105 _T2	=	0x0090
                    0091    106 _T2EX	=	0x0091
                    0092    107 _RXD1	=	0x0092
                    0093    108 _TXD1	=	0x0093
                    0094    109 _INT2	=	0x0094
                    0095    110 _INT3	=	0x0095
                    0096    111 _INT4	=	0x0096
                    0097    112 _INT5	=	0x0097
                    0098    113 _RI_0	=	0x0098
                    0099    114 _TI_0	=	0x0099
                    009A    115 _RB8_0	=	0x009a
                    009B    116 _TB8_0	=	0x009b
                    009C    117 _REN_0	=	0x009c
                    009D    118 _SM2_0	=	0x009d
                    009E    119 _SM1_0	=	0x009e
                    009F    120 _SM0_0	=	0x009f
                    009F    121 _FE_0	=	0x009f
                    00A8    122 _EX0	=	0x00a8
                    00A9    123 _ET0	=	0x00a9
                    00AA    124 _EX1	=	0x00aa
                    00AB    125 _ET1	=	0x00ab
                    00AC    126 _ES0	=	0x00ac
                    00AD    127 _ET2	=	0x00ad
                    00AE    128 _ES1	=	0x00ae
                    00AF    129 _EA	=	0x00af
                    00B0    130 _RXD0	=	0x00b0
                    00B1    131 _TXD0	=	0x00b1
                    00B2    132 _INT0	=	0x00b2
                    00B3    133 _INT1	=	0x00b3
                    00B4    134 _T0	=	0x00b4
                    00B5    135 _T1	=	0x00b5
                    00B6    136 _WR	=	0x00b6
                    00B7    137 _RD	=	0x00b7
                    00B8    138 _PX0	=	0x00b8
                    00B9    139 _PT0	=	0x00b9
                    00BA    140 _PX1	=	0x00ba
                    00BB    141 _PT1	=	0x00bb
                    00BC    142 _PS0	=	0x00bc
                    00BD    143 _PT2	=	0x00bd
                    00BE    144 _PS1	=	0x00be
                    00C0    145 _RI_1	=	0x00c0
                    00C1    146 _TI_1	=	0x00c1
                    00C2    147 _RB8_1	=	0x00c2
                    00C3    148 _TB8_1	=	0x00c3
                    00C4    149 _REN_1	=	0x00c4
                    00C5    150 _SM2_1	=	0x00c5
                    00C6    151 _SM1_1	=	0x00c6
                    00C7    152 _SM0_1	=	0x00c7
                    00C7    153 _FE_1	=	0x00c7
                    00C8    154 _CP_RL	=	0x00c8
                    00C9    155 _C_T	=	0x00c9
                    00CA    156 _TR2	=	0x00ca
                    00CB    157 _EXEN2	=	0x00cb
                    00CC    158 _TCLK	=	0x00cc
                    00CD    159 _RCLK	=	0x00cd
                    00CE    160 _EXF2	=	0x00ce
                    00CF    161 _TF2	=	0x00cf
                    00D0    162 _P	=	0x00d0
                    00D1    163 _F1	=	0x00d1
                    00D2    164 _OV	=	0x00d2
                    00D3    165 _RS0	=	0x00d3
                    00D4    166 _RS1	=	0x00d4
                    00D5    167 _F0	=	0x00d5
                    00D6    168 _AC	=	0x00d6
                    00D7    169 _CY	=	0x00d7
                    00D8    170 _RWT	=	0x00d8
                    00D9    171 _EWT	=	0x00d9
                    00DA    172 _WDRF	=	0x00da
                    00DB    173 _WDIF	=	0x00db
                    00DC    174 _PFI	=	0x00dc
                    00DD    175 _EPFI	=	0x00dd
                    00DE    176 _POR	=	0x00de
                    00DF    177 _SMOD_1	=	0x00df
                    00E8    178 _EX2	=	0x00e8
                    00E9    179 _EX3	=	0x00e9
                    00EA    180 _EX4	=	0x00ea
                    00EB    181 _EX5	=	0x00eb
                    00EC    182 _EWDI	=	0x00ec
                    00ED    183 _C1IE	=	0x00ed
                    00EE    184 _C0IE	=	0x00ee
                    00EF    185 _CANBIE	=	0x00ef
                    00F8    186 _PX2	=	0x00f8
                    00F9    187 _PX3	=	0x00f9
                    00FA    188 _PX4	=	0x00fa
                    00FB    189 _PX5	=	0x00fb
                    00FC    190 _PWDI	=	0x00fc
                    00FD    191 _C1IP	=	0x00fd
                    00FE    192 _C0IP	=	0x00fe
                    00FF    193 _CANBIP	=	0x00ff
                            194 ;--------------------------------------------------------
                            195 ; overlayable register banks
                            196 ;--------------------------------------------------------
                            197 	.area REG_BANK_0	(REL,OVR,DATA)
   0000                     198 	.ds 8
                            199 ;--------------------------------------------------------
                            200 ; internal ram data
                            201 ;--------------------------------------------------------
                            202 	.area DSEG    (DATA)
                            203 ;--------------------------------------------------------
                            204 ; overlayable items in internal ram 
                            205 ;--------------------------------------------------------
                            206 	.area OSEG    (OVR,DATA)
                            207 ;--------------------------------------------------------
                            208 ; indirectly addressable internal ram data
                            209 ;--------------------------------------------------------
                            210 	.area ISEG    (DATA)
                            211 ;--------------------------------------------------------
                            212 ; absolute internal ram data
                            213 ;--------------------------------------------------------
                            214 	.area IABS    (ABS,DATA)
                            215 	.area IABS    (ABS,DATA)
                            216 ;--------------------------------------------------------
                            217 ; bit data
                            218 ;--------------------------------------------------------
                            219 	.area BSEG    (BIT)
                            220 ;--------------------------------------------------------
                            221 ; paged external ram data
                            222 ;--------------------------------------------------------
                            223 	.area PSEG    (PAG,XDATA)
                            224 ;--------------------------------------------------------
                            225 ; external ram data
                            226 ;--------------------------------------------------------
                            227 	.area XSEG    (XDATA)
                            228 ;--------------------------------------------------------
                            229 ; absolute external ram data
                            230 ;--------------------------------------------------------
                            231 	.area XABS    (ABS,XDATA)
                            232 ;--------------------------------------------------------
                            233 ; external initialized ram data
                            234 ;--------------------------------------------------------
                            235 	.area XISEG   (XDATA)
                            236 ;--------------------------------------------------------
                            237 ; global & static initialisations
                            238 ;--------------------------------------------------------
                            239 	.area HOME    (CODE)
                            240 	.area GSINIT  (CODE)
                            241 	.area GSFINAL (CODE)
                            242 	.area GSINIT  (CODE)
                            243 ;--------------------------------------------------------
                            244 ; Home
                            245 ;--------------------------------------------------------
                            246 	.area HOME    (CODE)
                            247 	.area HOME    (CODE)
                            248 ;--------------------------------------------------------
                            249 ; code
                            250 ;--------------------------------------------------------
                            251 	.area CSEG    (CODE)
                            252 ;------------------------------------------------------------
                            253 ;Allocation info for local variables in function 'putchar'
                            254 ;------------------------------------------------------------
                            255 ;c                         Allocated to registers r2 
                            256 ;------------------------------------------------------------
                            257 ;	/home/sdcc-builder/build/sdcc-build/orig/sdcc/device/lib/ds390/putchar.c:28: void putchar (char c)
                            258 ;	-----------------------------------------
                            259 ;	 function putchar
                            260 ;	-----------------------------------------
   0000                     261 _putchar:
                    0002    262 	ar2 = 0x02
                    0003    263 	ar3 = 0x03
                    0004    264 	ar4 = 0x04
                    0005    265 	ar5 = 0x05
                    0006    266 	ar6 = 0x06
                    0007    267 	ar7 = 0x07
                    0000    268 	ar0 = 0x00
                    0001    269 	ar1 = 0x01
   0000 AA 82               270 	mov	r2,dpl
                            271 ;	/home/sdcc-builder/build/sdcc-build/orig/sdcc/device/lib/ds390/putchar.c:30: Serial0PutChar(c);
   0002 8A 82               272 	mov	dpl,r2
   0004 12s00r00r00         273 	lcall	_Serial0PutChar
   0008                     274 00101$:
   0008 22                  275 	ret
                            276 ;------------------------------------------------------------
                            277 ;Allocation info for local variables in function 'getchar'
                            278 ;------------------------------------------------------------
                            279 ;------------------------------------------------------------
                            280 ;	/home/sdcc-builder/build/sdcc-build/orig/sdcc/device/lib/ds390/putchar.c:33: extern char getchar(void)
                            281 ;	-----------------------------------------
                            282 ;	 function getchar
                            283 ;	-----------------------------------------
   0009                     284 _getchar:
                            285 ;	/home/sdcc-builder/build/sdcc-build/orig/sdcc/device/lib/ds390/putchar.c:35: return Serial0GetChar();
   0009 12s00r00r00         286 	lcall	_Serial0GetChar
   000D                     287 00101$:
   000D 22                  288 	ret
                            289 	.area CSEG    (CODE)
                            290 	.area CONST   (CODE)
                            291 	.area XINIT   (CODE)
                            292 	.area CABS    (ABS,CODE)
